<svg width="98" height="100" viewBox="0 0 98 100" fill="none" xmlns="http://www.w3.org/2000/svg">
<path d="M82.8104 100C83.8895 100 84.7639 99.1028 84.7639 97.9956C84.7639 96.8884 83.8895 95.9912 82.8104 95.9912H16.3785C15.2994 95.9912 14.425 96.8884 14.425 97.9956C14.425 99.1028 15.2994 100 16.3785 100H82.8104Z" fill="#FC4747"/>
<path d="M79.2791 87.596H62.0933V54.1076L79.2791 63.0716V87.596ZM58.1864 50.8328C58.1864 50.8348 58.1864 50.8369 58.1864 50.8389V87.596H41.0026V35.5537V15.917L58.1864 6.95308V50.8328ZM37.0937 87.596H19.9079V47.7843L37.0937 38.8204V87.596ZM95.5487 87.596H83.186V61.842C83.186 61.0875 82.7747 60.3963 82.1169 60.0537L62.0933 49.6114V3.6844C62.0933 2.98906 61.7416 2.34061 61.1633 1.97561C60.583 1.61264 59.8596 1.58204 59.2555 1.8981L38.1628 12.8991C37.507 13.2417 37.0937 13.9309 37.0937 14.6875V34.3241L17.0701 44.7685C16.4143 45.109 16.0009 45.8003 16.0009 46.5547V87.596H3.63824C2.55916 87.596 1.68475 88.4932 1.68475 89.6005C1.68475 90.7077 2.55916 91.6069 3.63824 91.6069H95.5487C96.6298 91.6069 97.5042 90.7077 97.5042 89.6005C97.5042 88.4932 96.6298 87.596 95.5487 87.596" fill="#FC4747"/>
<path d="M67.4112 84.7986C68.22 84.7986 68.8778 84.1236 68.8778 83.2937V61.4507C68.8778 60.6187 68.22 59.9458 67.4112 59.9458C66.6023 59.9458 65.9465 60.6187 65.9465 61.4507V83.2937C65.9465 84.1236 66.6023 84.7986 67.4112 84.7986Z" fill="#FC4747"/>
<path d="M73.9592 84.7986C74.77 84.7986 75.4258 84.1236 75.4258 83.2937V67.7986C75.4258 66.9687 74.77 66.2958 73.9592 66.2958C73.1504 66.2958 72.4946 66.9687 72.4946 67.7986V83.2937C72.4946 84.1236 73.1504 84.7986 73.9592 84.7986Z" fill="#FC4747"/>
<path d="M31.7758 84.7986C32.5866 84.7986 33.2424 84.1236 33.2424 83.2937V46.6448C33.2424 45.8129 32.5866 45.142 31.7758 45.142C30.967 45.142 30.3112 45.8129 30.3112 46.6448V83.2937C30.3112 84.1236 30.967 84.7986 31.7758 84.7986Z" fill="#FC4747"/>
<path d="M25.2277 84.7986C26.0366 84.7986 26.6943 84.1236 26.6943 83.2937V52.9923C26.6943 52.1604 26.0366 51.4895 25.2277 51.4895C24.4189 51.4895 23.7631 52.1604 23.7631 52.9923V83.2937C23.7631 84.1236 24.4189 84.7986 25.2277 84.7986Z" fill="#FC4747"/>
<path d="M53.1347 84.7986C53.9455 84.7986 54.6013 84.1236 54.6013 83.2937V15.2545C54.6013 14.4246 53.9455 13.7517 53.1347 13.7517C52.3259 13.7517 51.6702 14.4246 51.6702 15.2545V83.2937C51.6702 84.1236 52.3259 84.7986 53.1347 84.7986Z" fill="#FC4747"/>
<path d="M46.0522 84.7986C46.861 84.7986 47.5188 84.1236 47.5188 83.2937V21.9389C47.5188 21.109 46.861 20.4341 46.0522 20.4341C45.2434 20.4341 44.5876 21.109 44.5876 21.9389V83.2937C44.5876 84.1236 45.2434 84.7986 46.0522 84.7986" fill="#FC4747"/>
<path d="M81.1257 98.3191C82.2048 98.3191 83.0792 97.422 83.0792 96.3148C83.0792 95.2077 82.2048 94.3105 81.1257 94.3105H14.6938C13.6147 94.3105 12.7404 95.2077 12.7404 96.3148C12.7404 97.422 13.6147 98.3191 14.6938 98.3191H81.1257Z" fill="#333333"/>
<path d="M77.5943 85.9153H60.4086V52.4269L77.5943 61.3909V85.9153ZM56.5016 49.1521C56.5016 49.1542 56.5016 49.1562 56.5016 49.1582V85.9153H39.3178V33.8731V14.2364L56.5016 5.27241V49.1521ZM35.4089 85.9153H18.2231V46.1037L35.4089 37.1397V85.9153ZM93.864 85.9153H81.5013V60.1613C81.5013 59.4069 81.0899 58.7156 80.4321 58.373L60.4086 47.9307V2.00374C60.4086 1.3084 60.0568 0.659943 59.4785 0.294941C58.8982 -0.0680215 58.1749 -0.0986241 57.5708 0.217439L36.4781 11.2185C35.8223 11.561 35.4089 12.2503 35.4089 13.0068V32.6435L15.3853 43.0878C14.7295 43.4283 14.3162 44.1196 14.3162 44.8741V85.9153H1.95349C0.874407 85.9153 0 86.8126 0 87.9198C0 89.027 0.874407 89.9263 1.95349 89.9263H93.864C94.9451 89.9263 95.8195 89.027 95.8195 87.9198C95.8195 86.8126 94.9451 85.9153 93.864 85.9153" fill="#333333"/>
<path d="M65.7264 83.1179C66.5353 83.1179 67.1931 82.443 67.1931 81.613V59.7696C67.1931 58.9376 66.5353 58.2647 65.7264 58.2647C64.9176 58.2647 64.2618 58.9376 64.2618 59.7696V81.613C64.2618 82.443 64.9176 83.1179 65.7264 83.1179Z" fill="#333333"/>
<path d="M72.2744 83.1179C73.0852 83.1179 73.741 82.443 73.741 81.6131V66.1178C73.741 65.2878 73.0852 64.6149 72.2744 64.6149C71.4656 64.6149 70.8098 65.2878 70.8098 66.1178V81.6131C70.8098 82.443 71.4656 83.1179 72.2744 83.1179Z" fill="#333333"/>
<path d="M30.0911 83.1179C30.9019 83.1179 31.5577 82.443 31.5577 81.6131V44.9639C31.5577 44.132 30.9019 43.4611 30.0911 43.4611C29.2823 43.4611 28.6265 44.132 28.6265 44.9639V81.6131C28.6265 82.443 29.2823 83.1179 30.0911 83.1179Z" fill="#333333"/>
<path d="M23.543 83.1179C24.3518 83.1179 25.0096 82.443 25.0096 81.6131V51.3117C25.0096 50.4797 24.3518 49.8088 23.543 49.8088C22.7342 49.8088 22.0784 50.4797 22.0784 51.3117V81.6131C22.0784 82.443 22.7342 83.1179 23.543 83.1179Z" fill="#333333"/>
<path d="M51.45 83.1179C52.2608 83.1179 52.9166 82.443 52.9166 81.6131V13.5737C52.9166 12.7437 52.2608 12.0708 51.45 12.0708C50.6412 12.0708 49.9854 12.7437 49.9854 13.5737V81.6131C49.9854 82.443 50.6412 83.1179 51.45 83.1179Z" fill="#333333"/>
<path d="M44.3674 83.1179C45.1763 83.1179 45.834 82.443 45.834 81.6131V20.2581C45.834 19.4281 45.1763 18.7532 44.3674 18.7532C43.5586 18.7532 42.9028 19.4281 42.9028 20.2581V81.6131C42.9028 82.443 43.5586 83.1179 44.3674 83.1179" fill="#333333"/>
</svg>
