<svg width="50" height="50" viewBox="0 0 50 50" fill="none" xmlns="http://www.w3.org/2000/svg">
<path d="M32.5 22.4999H30V9.99988C30 8.62488 28.875 7.49988 27.5 7.49988H22.5C21.125 7.49988 20 8.62488 20 9.99988V22.4999H17.5C13.35 22.4999 10 25.8499 10 29.9999V42.4999C26.275 42.4999 40 42.4999 40 42.4999V29.9999C40 25.8499 36.65 22.4999 32.5 22.4999ZM22.5 9.99988H27.5V22.4999H22.5V9.99988ZM37.5 39.9999H32.5V36.2499C32.5 35.5499 31.95 34.9999 31.25 34.9999C30.55 34.9999 30 35.5499 30 36.2499V39.9999H26.25V36.2499C26.25 35.5499 25.7 34.9999 25 34.9999C24.3 34.9999 23.75 35.5499 23.75 36.2499V39.9999H20V36.2499C20 35.5499 19.45 34.9999 18.75 34.9999C18.05 34.9999 17.5 35.5499 17.5 36.2499V39.9999H12.5V29.9999C12.5 27.2499 14.75 24.9999 17.5 24.9999H32.5C35.25 24.9999 37.5 27.2499 37.5 29.9999V39.9999Z" fill="#ef4444"/>
</svg>
