<svg width="117" height="102" viewBox="0 0 117 102" fill="none" xmlns="http://www.w3.org/2000/svg">
<path d="M26.2866 2.0841C24.9873 2.26332 3.54829 9.88011 2.62979 10.485C1.6889 11.0898 1.7561 11.6947 3.14505 15.5255C4.44438 19.1323 4.82522 19.7595 5.78852 19.7595C6.01254 19.7595 10.6946 18.1466 16.1608 16.1752C21.627 14.2038 26.1746 12.5908 26.2866 12.5908C26.3762 12.5908 31.7976 27.1971 38.2943 45.0741L50.1227 77.5575L49.1146 78.6104C47.7929 80.0442 46.6055 82.1276 45.9783 84.1214C45.239 86.4288 45.2614 89.9908 46.0007 92.3206C47.524 96.9803 51.3996 100.542 56.2161 101.73C57.9187 102.155 61.3239 102.066 63.0936 101.55C68.4254 100.005 72.3458 95.5242 73.1523 90.0356L73.3987 88.3554L94.5017 80.6938C116.12 72.853 116.59 72.6514 116.59 71.5313C116.59 71.3073 116.142 69.8959 115.582 68.3502C113.544 62.7944 113.79 62.9288 109.623 64.4522C108.033 65.0346 106.644 65.4379 106.554 65.3706C106.487 65.281 102.768 55.1552 98.2877 42.8787C92.5975 27.2195 90.0212 20.4316 89.6852 20.1404C89.4164 19.9387 88.9683 19.7595 88.6547 19.7595C88.005 19.7595 87.0193 20.678 87.0193 21.3053C87.0193 21.5741 87.9378 24.2848 89.0579 27.3763C90.178 30.4678 91.0741 33.0217 91.0293 33.0665C90.6709 33.3129 56.6866 45.5222 56.5074 45.4774C56.3057 45.4102 47.5016 21.5293 47.636 21.4397C47.9273 21.2605 59.0836 17.2953 59.1508 17.3625C59.1956 17.4073 59.8005 18.9978 60.4726 20.902C61.7495 24.4192 62.1976 25.1361 63.1609 25.1361C63.4521 25.1361 65.6251 24.4192 68.0222 23.5679C72.301 21.9998 73.3539 21.4173 73.3539 20.5212C73.3539 20.342 72.7714 18.5946 72.0546 16.6232L70.7328 13.0388L71.6513 12.7028C72.1666 12.5236 74.7428 11.5603 77.3863 10.597L82.2028 8.8496L82.5613 9.65609C82.7629 10.1041 83.3453 11.6499 83.883 13.106C84.3982 14.5622 85.0031 15.9511 85.2271 16.22C86.0784 17.2729 88.005 16.4888 87.9602 15.1222C87.9602 14.7638 87.2433 12.5236 86.3697 10.1265C84.8015 5.80289 84.331 4.974 83.4349 4.974C82.6285 4.974 44.4325 19.0427 44.1189 19.4683C43.9397 19.6923 43.7828 20.0956 43.7828 20.3644C43.7828 20.6332 48.1737 32.9097 53.5279 47.628C58.882 62.3687 63.2729 74.466 63.2729 74.5556C63.2729 74.6228 63.004 74.6228 62.668 74.5332C62.3096 74.4436 61.4807 74.3092 60.8086 74.2196L59.5765 74.0851L47.3 40.3697C38.6527 16.556 34.8219 6.34055 34.3067 5.60127C32.5369 3.0026 29.423 1.63606 26.2866 2.0841ZM29.6918 5.8925C30.8343 6.45256 31.7752 7.63988 32.3577 9.16324C34.4635 14.8086 55.9473 73.9283 55.9697 74.1524C55.9921 74.4884 53.1694 75.6309 52.9454 75.3621C52.8782 75.2725 47.4344 60.4421 40.8929 42.3859C34.3291 24.3296 28.7733 9.36486 28.5493 9.14083C28.3252 8.89441 27.8324 8.71519 27.4964 8.71519C27.1603 8.71519 22.3886 10.3506 16.9001 12.322C11.4339 14.2934 6.93104 15.9063 6.90864 15.8839C6.88623 15.8615 6.595 15.1446 6.28137 14.3158C5.87813 13.2181 5.78852 12.77 5.99014 12.7028C14.3686 9.63368 26.197 5.42205 26.6675 5.35484C27.6084 5.22043 28.7733 5.42205 29.6918 5.8925ZM67.7757 14.7638C67.9101 15.1222 68.3582 16.3096 68.7614 17.4297L69.5007 19.4683L67.1037 20.3196C65.8043 20.79 64.617 21.2157 64.4826 21.2605C64.2586 21.3501 62.1976 16.2424 62.3992 16.0855C62.4664 16.0407 67.2157 14.2486 67.4845 14.1814C67.5069 14.1589 67.6413 14.4278 67.7757 14.7638ZM97.8396 51.5036C100.886 59.8373 103.351 66.6924 103.306 66.7148C103.283 66.7372 95.7562 69.4927 86.5937 72.8306L69.9263 78.8792L68.8734 77.9383L67.7981 76.9974L62.7352 63.108C59.9573 55.4688 57.6723 49.1066 57.6723 48.9945C57.6723 48.8153 67.7981 45.0069 68.8286 44.8053C69.0303 44.7605 69.5679 45.9254 70.4416 48.3225C71.1809 50.2939 71.9426 52.0189 72.1666 52.1757C72.3682 52.3325 72.8162 52.4669 73.1523 52.4669C73.9364 52.4669 82.2924 49.4202 82.8077 48.9497C83.4349 48.3897 83.3005 47.5832 81.9788 43.9316C81.3067 42.0498 80.7915 40.4817 80.8363 40.4145C81.0155 40.2352 91.5894 36.382 91.9702 36.3596C92.2615 36.3372 93.5832 39.7648 97.8396 51.5036ZM78.484 44.1332C78.9769 45.5446 79.4025 46.7095 79.4025 46.7543C79.4025 46.8663 74.2276 48.7257 74.1604 48.6361C74.0484 48.4793 72.4354 43.842 72.4354 43.6404C72.4354 43.4612 77.4087 41.4674 77.5207 41.5794C77.5431 41.5794 77.9688 42.7443 78.484 44.1332ZM112.177 68.8878C112.491 69.7167 112.67 70.4336 112.58 70.4784C112.446 70.568 82.2252 81.5899 75.3477 84.0542L72.9507 84.9279L72.525 83.6509C72.2786 82.9565 72.0322 82.2396 71.9874 82.0828C71.9202 81.8587 77.4311 79.7529 91.7238 74.5332C102.634 70.568 111.572 67.3196 111.595 67.342C111.617 67.3645 111.886 68.0589 112.177 68.8878ZM62.4664 78.0056C66.902 79.3945 69.8815 83.4717 69.8591 88.1986C69.8591 94.6057 64.2138 99.4446 57.7843 98.5709C52.8334 97.8988 48.7338 93.2839 48.7114 88.4002C48.7114 83.5165 51.7581 79.3721 56.4402 77.8935C57.8739 77.4231 60.7638 77.4903 62.4664 78.0056Z" fill="#FC4747"/>
<path d="M56.8434 83.8301C52.811 86.1375 53.8639 92.1637 58.4564 93.0374C62.0855 93.7319 65.2443 90.1027 64.0793 86.5856C63.0936 83.5836 59.5765 82.2619 56.8434 83.8301ZM60.5622 87.1008C61.0998 87.7953 61.1446 88.0641 60.7862 88.8482C60.4278 89.6099 59.5093 89.9011 58.6356 89.5427C57.0002 88.8482 57.5379 86.5183 59.3524 86.5183C59.8901 86.5183 60.2261 86.6752 60.5622 87.1008Z" fill="#FC4747"/>
<path d="M24.2866 0.0841049C22.9873 0.263323 1.54829 7.88011 0.629793 8.48497C-0.311105 9.08983 -0.243898 9.69469 1.14505 13.5255C2.44438 17.1323 2.82522 17.7595 3.78852 17.7595C4.01254 17.7595 8.69463 16.1466 14.1608 14.1752C19.627 12.2038 24.1746 10.5908 24.2866 10.5908C24.3762 10.5908 29.7976 25.1971 36.2943 43.0741L48.1227 75.5575L47.1146 76.6104C45.7929 78.0442 44.6055 80.1276 43.9783 82.1214C43.239 84.4288 43.2614 87.9908 44.0007 90.3206C45.524 94.9803 49.3996 98.5423 54.2161 99.7296C55.9187 100.155 59.3239 100.066 61.0936 99.5504C66.4254 98.0046 70.3458 93.5242 71.1523 88.0356L71.3987 86.3554L92.5017 78.6938C114.12 70.853 114.59 70.6514 114.59 69.5313C114.59 69.3073 114.142 67.8959 113.582 66.3502C111.544 60.7944 111.79 60.9288 107.623 62.4522C106.033 63.0346 104.644 63.4379 104.554 63.3706C104.487 63.281 100.768 53.1552 96.2877 40.8787C90.5975 25.2195 88.0212 18.4316 87.6852 18.1404C87.4164 17.9387 86.9683 17.7595 86.6547 17.7595C86.005 17.7595 85.0193 18.678 85.0193 19.3053C85.0193 19.5741 85.9378 22.2848 87.0579 25.3763C88.178 28.4678 89.0741 31.0217 89.0293 31.0665C88.6709 31.3129 54.6866 43.5222 54.5074 43.4774C54.3057 43.4102 45.5016 19.5293 45.636 19.4397C45.9273 19.2605 57.0836 15.2953 57.1508 15.3625C57.1956 15.4073 57.8005 16.9978 58.4726 18.902C59.7495 22.4192 60.1976 23.1361 61.1609 23.1361C61.4521 23.1361 63.6251 22.4192 66.0222 21.5679C70.301 19.9998 71.3539 19.4173 71.3539 18.5212C71.3539 18.342 70.7714 16.5946 70.0546 14.6232L68.7328 11.0388L69.6513 10.7028C70.1666 10.5236 72.7428 9.56028 75.3863 8.59698L80.2028 6.8496L80.5613 7.65609C80.7629 8.10413 81.3453 9.64989 81.883 11.106C82.3982 12.5622 83.0031 13.9511 83.2271 14.22C84.0784 15.2729 86.005 14.4888 85.9602 13.1222C85.9602 12.7638 85.2433 10.5236 84.3697 8.12654C82.8015 3.80289 82.331 2.974 81.4349 2.974C80.6285 2.974 42.4325 17.0427 42.1189 17.4683C41.9397 17.6923 41.7828 18.0956 41.7828 18.3644C41.7828 18.6332 46.1737 30.9097 51.5279 45.628C56.882 60.3687 61.2729 72.466 61.2729 72.5556C61.2729 72.6228 61.004 72.6228 60.668 72.5332C60.3096 72.4436 59.4807 72.3092 58.8086 72.2196L57.5765 72.0851L45.3 38.3697C36.6527 14.556 32.8219 4.34055 32.3067 3.60127C30.5369 1.0026 27.423 -0.363941 24.2866 0.0841049ZM27.6918 3.8925C28.8343 4.45256 29.7752 5.63988 30.3577 7.16324C32.4635 12.8086 53.9473 71.9283 53.9697 72.1524C53.9921 72.4884 51.1694 73.6309 50.9454 73.3621C50.8782 73.2725 45.4344 58.4421 38.8929 40.3859C32.3291 22.3296 26.7733 7.36486 26.5493 7.14083C26.3252 6.89441 25.8324 6.71519 25.4964 6.71519C25.1603 6.71519 20.3886 8.35055 14.9001 10.322C9.4339 12.2934 4.93104 13.9063 4.90864 13.8839C4.88623 13.8615 4.595 13.1446 4.28137 12.3158C3.87813 11.2181 3.78852 10.77 3.99014 10.7028C12.3686 7.63368 24.197 3.42205 24.6675 3.35484C25.6084 3.22043 26.7733 3.42205 27.6918 3.8925ZM65.7757 12.7638C65.9101 13.1222 66.3582 14.3096 66.7614 15.4297L67.5007 17.4683L65.1037 18.3196C63.8043 18.79 62.617 19.2157 62.4826 19.2605C62.2586 19.3501 60.1976 14.2424 60.3992 14.0855C60.4664 14.0407 65.2157 12.2486 65.4845 12.1814C65.5069 12.1589 65.6413 12.4278 65.7757 12.7638ZM95.8396 49.5036C98.8864 57.8373 101.351 64.6924 101.306 64.7148C101.283 64.7372 93.7562 67.4927 84.5937 70.8306L67.9263 76.8792L66.8734 75.9383L65.7981 74.9974L60.7352 61.108C57.9573 53.4688 55.6723 47.1066 55.6723 46.9945C55.6723 46.8153 65.7981 43.0069 66.8286 42.8053C67.0303 42.7605 67.5679 43.9254 68.4416 46.3225C69.1809 48.2939 69.9426 50.0189 70.1666 50.1757C70.3682 50.3325 70.8162 50.4669 71.1523 50.4669C71.9364 50.4669 80.2924 47.4202 80.8077 46.9497C81.4349 46.3897 81.3005 45.5832 79.9788 41.9316C79.3067 40.0498 78.7915 38.4817 78.8363 38.4145C79.0155 38.2352 89.5894 34.382 89.9702 34.3596C90.2615 34.3372 91.5832 37.7648 95.8396 49.5036ZM76.484 42.1332C76.9769 43.5446 77.4025 44.7095 77.4025 44.7543C77.4025 44.8663 72.2276 46.7257 72.1604 46.6361C72.0484 46.4793 70.4354 41.842 70.4354 41.6404C70.4354 41.4612 75.4087 39.4674 75.5207 39.5794C75.5431 39.5794 75.9688 40.7443 76.484 42.1332ZM110.177 66.8878C110.491 67.7167 110.67 68.4336 110.58 68.4784C110.446 68.568 80.2252 79.5899 73.3477 82.0542L70.9507 82.9279L70.525 81.6509C70.2786 80.9565 70.0322 80.2396 69.9874 80.0828C69.9202 79.8587 75.4311 77.7529 89.7238 72.5332C100.634 68.568 109.572 65.3196 109.595 65.342C109.617 65.3645 109.886 66.0589 110.177 66.8878ZM60.4664 76.0056C64.902 77.3945 67.8815 81.4717 67.8591 86.1986C67.8591 92.6057 62.2138 97.4446 55.7843 96.5709C50.8334 95.8988 46.7338 91.2839 46.7114 86.4002C46.7114 81.5165 49.7581 77.3721 54.4402 75.8935C55.8739 75.4231 58.7638 75.4903 60.4664 76.0056Z" fill="black"/>
<path d="M54.8434 81.8301C50.811 84.1375 51.8639 90.1637 56.4564 91.0374C60.0855 91.7319 63.2443 88.1027 62.0793 84.5856C61.0936 81.5836 57.5765 80.2619 54.8434 81.8301ZM58.5622 85.1008C59.0998 85.7953 59.1446 86.0641 58.7862 86.8482C58.4278 87.6099 57.5093 87.9011 56.6356 87.5427C55.0002 86.8482 55.5379 84.5183 57.3524 84.5183C57.8901 84.5183 58.2261 84.6752 58.5622 85.1008Z" fill="black"/>
</svg>
